Intro a R
…
.codefontchico[

```r
data_bulls <- filter(nba_data,
                     home_team == "Chicago Bulls" | visitor_team == "Chicago Bulls")
data_bulls <- drop_na(data_bulls)
data_bulls <- select(data_bulls, 
                     game_date_est, home_team, visitor_team, pts_home, pts_away)
print(data_bulls)
```

```
## # A tibble: 1,563 × 5
##    game_date_est home_team              visitor_team        pts_home pts_away
##    <date>        <chr>                  <chr>                  <dbl>    <dbl>
##  1 2020-12-18    Oklahoma City Thunder  Chicago Bulls            103      105
##  2 2020-12-16    Oklahoma City Thunder  Chicago Bulls            103      124
##  3 2020-12-13    Chicago Bulls          Houston Rockets          104       91
##  4 2020-12-11    Chicago Bulls          Houston Rockets          104      125
##  5 2020-03-10    Chicago Bulls          Cleveland Cavaliers      108      103
##  6 2020-03-08    Brooklyn Nets          Chicago Bulls            110      107
##  7 2020-03-06    Chicago Bulls          Indiana Pacers           102      108
##  8 2020-03-04    Minnesota Timberwolves Chicago Bulls            115      108
##  9 2020-03-02    Chicago Bulls          Dallas Mavericks         109      107
## 10 2020-02-29    New York Knicks        Chicago Bulls            125      115
## # … with 1,553 more rows
```
…
.codefont[

```r
data_bulls_pip <- nba_data %>% 
  filter(home_team == "Chicago Bulls" | visitor_team == "Chicago Bulls") %>% 
  drop_na() %>% 
  select(game_date_est, home_team, visitor_team, pts_home, pts_away)
print(data_bulls)
```

```
## # A tibble: 1,563 × 5
##    game_date_est home_team              visitor_team        pts_home pts_away
##    <date>        <chr>                  <chr>                  <dbl>    <dbl>
##  1 2020-12-18    Oklahoma City Thunder  Chicago Bulls            103      105
##  2 2020-12-16    Oklahoma City Thunder  Chicago Bulls            103      124
##  3 2020-12-13    Chicago Bulls          Houston Rockets          104       91
##  4 2020-12-11    Chicago Bulls          Houston Rockets          104      125
##  5 2020-03-10    Chicago Bulls          Cleveland Cavaliers      108      103
##  6 2020-03-08    Brooklyn Nets          Chicago Bulls            110      107
##  7 2020-03-06    Chicago Bulls          Indiana Pacers           102      108
##  8 2020-03-04    Minnesota Timberwolves Chicago Bulls            115      108
##  9 2020-03-02    Chicago Bulls          Dallas Mavericks         109      107
## 10 2020-02-29    New York Knicks        Chicago Bulls            125      115
## # … with 1,553 more rows
```
…
Para ordenar datos (numérica o alfabéticamente) podemos usar la función `arrange()`. Por defecto, `arrange()` ordena ascendentemente, con `desc()` podemos cambiar eso.

.codefont[

```r
# Con el pipeline, seleccionemos algunas variables y luego ordenemos
nba_data %>% 
  filter(home_team == "Chicago Bulls" | 
           visitor_team == "Chicago Bulls") %>% 
  select(game_date_est, home_team, visitor_team, pts_home, pts_away) %>% 
  arrange(pts_home)
```

```
## # A tibble: 1,570 × 5
##    game_date_est home_team            visitor_team    pts_home pts_away
##    <date>        <chr>                <chr>              <dbl>    <dbl>
##  1 2012-03-19    Orlando Magic        Chicago Bulls         59       85
##  2 2003-10-08    Indiana Pacers       Chicago Bulls         62       58
##  3 2012-02-10    Charlotte Hornets    Chicago Bulls         64       95
##  4 2013-05-13    Chicago Bulls        Miami Heat            65       88
##  5 2006-10-31    Miami Heat           Chicago Bulls         66      108
##  6 2003-11-03    Chicago Bulls        Houston Rockets       66       98
##  7 2015-04-30    Milwaukee Bucks      Chicago Bulls         66      120
##  8 2013-02-21    Chicago Bulls        Miami Heat            67       86
##  9 2012-02-08    New Orleans Pelicans Chicago Bulls         67       90
## 10 2006-10-19    San Antonio Spurs    Chicago Bulls         67       99
## # … with 1,560 more rows
```
…
---
## Ejercicio 

```r
nba_data %>%
  filter(home_team == "Dallas Mavericks" & season == 2011) %>% 
  select(pts_home, ast_home, reb_home) %>% 
  rename(puntos = pts_home,
         asistencias = ast_home,
         rebotes = reb_home)
```

```
## # A tibble: 36 × 3
##    puntos asistencias rebotes
##     <dbl>       <dbl>   <dbl>
##  1     97          19      39
##  2     79          15      46
##  3    104          19      52
##  4    117          21      39
##  5    110          24      56
##  6     97          19      44
##  7     95          19      45
##  8     75          14      38
##  9     90          18      43
## 10     93          15      29
## # … with 26 more rows
```
…
```r
nba_data %>% 
  filter(home_team %in% c("Chicago Bulls", "New York Knicks")) %>% 
  group_by(season, home_team) %>% 
  summarise(media = mean(pts_home, na.rm = TRUE)) 
```

```
## `summarise()` has grouped output by 'season'. You can override using the
## `.groups` argument.
```

```
## # A tibble: 36 × 3
## # Groups:   season [18]
##    season home_team       media
##     <dbl> <chr>           <dbl>
##  1   2003 Chicago Bulls    88.9
##  2   2003 New York Knicks  93.1
##  3   2004 Chicago Bulls    96.2
##  4   2004 New York Knicks  98.7
##  5   2005 Chicago Bulls    98.3
##  6   2005 New York Knicks  98.0
##  7   2006 Chicago Bulls    98.8
##  8   2006 New York Knicks 101. 
##  9   2007 Chicago Bulls    98.6
## 10   2007 New York Knicks  97  
## # … with 26 more rows
```
…
## Uno ambos dataframes usando left_join()
# Manera tradicional
nba_full <- left_join(x = nba_u10,
                      y = nba_teams_rec,
                      by = c("home_team" = "team"))
# Con pipeline
nba_full <- nba_u10 %>% 
  left_join(nba_teams_rec, by = c("home_team" = "team"))

nba_full
```

```
## # A tibble: 12,240 × 5
##    home_team             visitor_team           pts_home pts_away conference
##    <chr>                 <chr>                     <dbl>    <dbl> <chr>     
##  1 Orlando Magic         Charlotte Hornets           120      117 east      
##  2 Washington Wizards    Detroit Pistons              99       96 east      
##  3 Memphis Grizzlies     Atlanta Hawks               116      117 west      
##  4 Indiana Pacers        Philadelphia 76ers          107      113 east      
##  5 Toronto Raptors       Miami Heat                  105      117 east      
##  6 New York Knicks       Cleveland Cavaliers         119       83 east      
##  7 Boston Celtics        Brooklyn Nets                89      113 east      
##  8 New Orleans Pelicans  Milwaukee Bucks             127      113 west      
##  9 Oklahoma City Thunder Chicago Bulls               103      105 west      
## 10 Denver Nuggets        Portland Trail Blazers      129       96 west      
## # … with 12,230 more rows
```
…
